{
  "project_info": {
    "project_number": "1019178046442",
    "project_id": "ivanapps-4cf96",
    "storage_bucket": "ivanapps-4cf96.appspot.com"
  },
  "client": [
    {
      "client_info": {
        "mobilesdk_app_id": "1:1019178046442:android:22a13471595ee00e995893",
        "android_client_info": {
          "package_name": "com.example.minesweeperapp"
        }
      },
      "oauth_client": [
        {
          "client_id": "1019178046442-77kasvekln8p1c0u8uqha6lskg5m0vai.apps.googleusercontent.com",
          "client_type": 3
        }
      ],
      "api_key": [
        {
          "current_key": "AIzaSyD943f2P-IgHnbf5HJTwYpfaDelQnDhuGs"
        }
      ],
      "services": {
        "appinvite_service": {
          "other_platform_oauth_client": [
            {
              "client_id": "1019178046442-77kasvekln8p1c0u8uqha6lskg5m0vai.apps.googleusercontent.com",
              "client_type": 3
            }
          ]
        }
      }
    },
    {
      "client_info": {
        "mobilesdk_app_id": "1:1019178046442:android:8af91bc21de6124d995893",
        "android_client_info": {
          "package_name": "com.example.slotsapp"
        }
      },
      "oauth_client": [
        {
          "client_id": "1019178046442-77kasvekln8p1c0u8uqha6lskg5m0vai.apps.googleusercontent.com",
          "client_type": 3
        }
      ],
      "api_key": [
        {
          "current_key": "AIzaSyD943f2P-IgHnbf5HJTwYpfaDelQnDhuGs"
        }
      ],
      "services": {
        "appinvite_service": {
          "other_platform_oauth_client": [
            {
              "client_id": "1019178046442-77kasvekln8p1c0u8uqha6lskg5m0vai.apps.googleusercontent.com",
              "client_type": 3
            }
          ]
        }
      }
    }
  ],
  "configuration_version": "1"
}